01,Agriculture; Hunting & Related Serv,A - Agriculture Hunting and Forestry,,
02,"Forestry, Logging & Related Service",A - Agriculture Hunting and Forestry,,
05,"Fishing, Fish Farming & Related Se",B - Fishing,,
10,Coal & Lignite; Extraction of Peat,C - Mining and Quarrying,,
11,"Crude Petroleum, Natural Gas & Oil",C - Mining and Quarrying,,
13,Metal Ores,C - Mining and Quarrying,,
14,Other Mining and Quarrying,C - Mining and Quarrying,,
12,Uranium & Thorium Ores,C - Mining and Quarrying,,
27,Basic Metals,D - Manufacturing,,
24,Chemicals & Products,D - Manufacturing,,
18,Clothing (Wearing Apparel),D - Manufacturing,,
31,Electrical Machinery & Apparatus,D - Manufacturing,,
28,Fabricated Metal Goods,D - Manufacturing,,
15,Food & Drink,D - Manufacturing,,
36,Furniture & Manu. NES,D - Manufacturing,,
33,Instruments; watches & clocks,D - Manufacturing,,
19,Leather & Leather Products,D - Manufacturing,,
29,Machinery & Equipment NES,D - Manufacturing,,
23,Manufactured & Nuclear Fuels,D - Manufacturing,,
34,Motor Vehicles; Trailers,D - Manufacturing,,
26,Non-metallic Mineral Products,D - Manufacturing,,
30,Office Machinery & Computers,D - Manufacturing,,
35,Other Transport Equipment,D - Manufacturing,,
22,Publishing & Printing,D - Manufacturing,,
21,Pulp Paper & Paper Products,D - Manufacturing,,
32,"Radio, Television & Comms. Equipmen",D - Manufacturing,,
37,Recycling,D - Manufacturing,,
25,Rubber & Plastics,D - Manufacturing,,
17,Textiles,D - Manufacturing,,
16,Tobacco,D - Manufacturing,,
20,Wood & Wood Products,D - Manufacturing,,
40,Electricity; Gas; Steam,E - Electricity; Gas & Water Supply,,
41,Water,E - Electricity; Gas & Water Supply,,
45,Construction,F - Construction,,
52,Retail Trade,G - Wholesale & Retail,,
50,Sale of Motor Vehicles,G - Wholesale & Retail,,
51,Wholesale Trade & Commision Trade,G - Wholesale & Retail,,
55,Hotels & Restaurants,H - Hotels & Restaurants,,
62,Air Transport,I - Transport and Communications,,
60,Land Transport,I - Transport and Communications,,
63,Other Transport Services,I - Transport and Communications,,
64,Post & Telecommunications,I - Transport and Communications,,
61,Water Transport,I - Transport and Communications,,
67,Activites Auxiliary to Finance Inte,J - Financial Intermediation,,
65,Banking & Finance,J - Financial Intermediation,,
66,Insurance & Pension Funding,J - Financial Intermediation,,
72,Computer & Related Activities,K - Real Estate; Renting & Business Acti,,
74,Other Business Activities,K - Real Estate; Renting & Business Acti,,
70,Real Estate Activities,K - Real Estate; Renting & Business Acti,,
71,Renting of Machinery & Equipment,K - Real Estate; Renting & Business Acti,,
73,Research & Development,K - Real Estate; Renting & Business Acti,,
75,Public Administration and Defence,L - Public Administration & Defence,,
80,Education and Training,M - Education,,
85,Health & Social Work,N - Health & Social Work,,
91,Activites of Membership Organisatio,O - Other Community Activities,,
93,Other Service Activities,O - Other Community Activities,,
92,Recreational & Sporting Activities,O - Other Community Activities,,
90,Sewage & Refuse Disposal,O - Other Community Activities,,
95,Activities of Households as Employe,P - Private Households Employing Staff,,
96,Undifferentiated Goods,P - Private Households Employing Staff,,
97,Undifferentiated Services,P - Private Households Employing Staff,,
